{
  "properties": [
    {
      "name": "mova.jpa.natural-id.base-packages",
      "type": "java.lang.String",
      "description": "Enable the computation and insertion of a request correlation id in the MDC."
    }
  ]
}